{
    "Categories": "Qt;KDE;",
    "KPlugin": {
        "BugReportUrl": "https://bugs.kde.org/enter_bug.cgi?product=systemsettings&component=kcm_kwinvirtualkeyboard",
        "Description": "Select which virtual keyboard to use",
        "Description[ar]": "اختر أيا من لوحات المفاتيح الافتراضية لإستعمالها",
        "Description[az]": "İstifadə edəcəyiniz virtual klaviaturanı seçin",
        "Description[bg]": "Избиране на виртуална клавиатура, която да се използва",
        "Description[ca@valencia]": "Seleccioneu el teclat virtual que s'ha d'utilitzar",
        "Description[ca]": "Seleccioneu el teclat virtual a usar",
        "Description[de]": "Wählen Sie die zu verwendende virtuelle Tastatur",
        "Description[en_GB]": "Select which virtual keyboard to use",
        "Description[es]": "Seleccionar el teclado virtual que se debe usar",
        "Description[eu]": "Hautatu erabili beharreko alegiazko teklatua",
        "Description[fi]": "Valitse käytettävä näyttönäppäimistö",
        "Description[fr]": "Sélectionner quel clavier virtuel à utiliser",
        "Description[id]": "Pilih keyboard virtual apa yang digunakan",
        "Description[it]": "Seleziona quale tastiera virtuale utilizzare",
        "Description[ja]": "使用する仮想キーボードを選択",
        "Description[ko]": "사용할 가상 키보드 선택",
        "Description[nl]": "Het te gebruiken virtuele toetsenbord selecteren",
        "Description[nn]": "Vel kva virtuelle tastatur du vil bruka",
        "Description[pl]": "Wybierz której klawiatury ekranowej użyć",
        "Description[pt]": "Seleccione qual o teclado virtual a usar",
        "Description[pt_BR]": "Selecione qual teclado virtual a ser usado",
        "Description[ru]": "Выбор виртуальной клавиатуры",
        "Description[sk]": "Vyberte, ktorá virtuálna klávesnica sa má použiť",
        "Description[sl]": "Izberite, katere navidezne tipkovnice želite uporabljati",
        "Description[sv]": "Välj vilket virtuellt tangentbord som ska användas",
        "Description[ta]": "பயன்படுத்தவேண்டிய மெய்நிகர் விசைப்பலகையை தேர்ந்தெடுங்கள்",
        "Description[tr]": "Hangi sanal klavyenin kullanılacağını seçin",
        "Description[uk]": "Вибір віртуальної клавіатури",
        "Description[vi]": "Chọn bàn phím ảo để dùng",
        "Description[x-test]": "xxSelect which virtual keyboard to usexx",
        "Description[zh_CN]": "选择要使用的虚拟键盘",
        "Description[zh_TW]": "選取要使用的虛擬鍵盤",
        "Icon": "input-keyboard-virtual",
        "Name": "Virtual Keyboard",
        "Name[ar]": "لوحة المفاتيح الوهميّة",
        "Name[az]": "Virtual klaviatura",
        "Name[bg]": "Виртуална клавиатура",
        "Name[ca@valencia]": "Teclat virtual",
        "Name[ca]": "Teclat virtual",
        "Name[cs]": "Virtuální klávesnice",
        "Name[de]": "Virtuelle Tastatur",
        "Name[en_GB]": "Virtual Keyboard",
        "Name[es]": "Teclado virtual",
        "Name[eu]": "Alegiazko teklatua",
        "Name[fi]": "Näyttönäppäimistö",
        "Name[fr]": "Clavier virtuel",
        "Name[id]": "Keyboard Virtual",
        "Name[it]": "Tastiera virtuale",
        "Name[ja]": "仮想キーボード",
        "Name[ka]": "ვირტუალური კლავიატურა",
        "Name[ko]": "가상 키보드",
        "Name[nl]": "Virtueel toetsenbord",
        "Name[nn]": "Virtuelt tastatur",
        "Name[pl]": "Klawiatura ekranowa",
        "Name[pt]": "Teclado Virtual",
        "Name[pt_BR]": "Teclado virtual",
        "Name[ru]": "Виртуальная клавиатура",
        "Name[sk]": "Virtuálna klávesnica",
        "Name[sl]": "Navidezna tipkovnica",
        "Name[sv]": "Virtuellt tangentbord",
        "Name[ta]": "மெய்நிகர் விசைப்பலகை",
        "Name[tr]": "Sanal Klavye",
        "Name[uk]": "Віртуальна клавіатура",
        "Name[vi]": "Bàn phím ảo",
        "Name[x-test]": "xxVirtual Keyboardxx",
        "Name[zh_CN]": "虚拟键盘",
        "Name[zh_TW]": "虛擬鍵盤"
    },
    "X-DocPath": "kcontrol/kwinvirtualkeyboard/index.html",
    "X-KDE-Keywords": "software keyboard,virtual keyboard,touch keyboard,on screen keyboard,input methods",
    "X-KDE-Keywords[ar]": "لوحة مفاتيح,افتراضية,لوحة مفاتيح تطبيقات,لمس,على الشاشة,دخل,إدخال",
    "X-KDE-Keywords[az]": "software keyboard,virtual keyboard,touch keyboard,on screen keyboard,input methods,proqram klaviaturası,virtual klaviatura,sensor klaviatura,ekran klaviaturası,daxiletmə üsulları",
    "X-KDE-Keywords[ca@valencia]": "teclat per programari,teclat virtual,teclat tàctil,teclat en pantalla,mètodes d'entrada",
    "X-KDE-Keywords[ca]": "teclat per programari,teclat virtual,teclat tàctil,teclat en pantalla,mètodes d'entrada",
    "X-KDE-Keywords[en_GB]": "software keyboard,virtual keyboard,touch keyboard,on screen keyboard,input methods",
    "X-KDE-Keywords[es]": "teclado de software,teclado virtual,teclado táctil,teclado en la pantalla,métodos de entrada",
    "X-KDE-Keywords[fi]": "ohjelmallinen näppäimistö,virtuaalinäppäimistö,näyttönäppäimistö,kosketusnäppäimistö,syötetapa,syötetavat",
    "X-KDE-Keywords[fr]": "clavier logiciel, clavier virtuel, pavé tactile, clavier à l'écran, méthodes de d'entrée",
    "X-KDE-Keywords[hu]": "szoftveres billentyűzet,virtuális billentyűzet,érintőbillentyűzet,képernyőbillentyűzet,beviteli módok",
    "X-KDE-Keywords[ia]": "claviero software, claviero virtual, claviero a toccar, claviero sur schermo, methodos de entrata",
    "X-KDE-Keywords[id]": "keyboard perangkat lunak,keyboard virtual,keyboard sentuh,keyboard pada layar,metode input",
    "X-KDE-Keywords[it]": "tastiera software,tastiera virtuale,tastiera tattile,tastiera su schermo,metodi di inserimento",
    "X-KDE-Keywords[ko]": "software keyboard,virtual keyboard,touch keyboard,on screen keyboard,input methods,소프트웨어 키보드,가상 키보드,터치 키보드,화면상 키보드,입력기",
    "X-KDE-Keywords[nl]": "softwaretoetsenbord,virtueel toetsenbord,aanraaktoetsenbord,toetsenbord op scherm,invoermethoden",
    "X-KDE-Keywords[nn]": "programtastatur,virtuelt tastatur,fingertastatur,skjermtastatur,inndatametode",
    "X-KDE-Keywords[pl]": "klawiatura programowa,klawiatura wirtualna,klawiatura dotykowa,klawiatura ekranowa, sposoby wprowadzania",
    "X-KDE-Keywords[pt]": "teclado por 'software',teclado virtual,teclado táctil,teclado no ecrã,métodos de entrada",
    "X-KDE-Keywords[pt_BR]": "teclado de software,teclado virtual,teclado de toque,touch,touchscreen,teclado na tela,métodos de entrada",
    "X-KDE-Keywords[ru]": "software keyboard,virtual keyboard,touch keyboard,on screen keyboard,input methods,программная клавиатура,виртуальная клавиатура,сенсорная клавиатура,экранная клавиатура,способы ввода",
    "X-KDE-Keywords[sk]": "softvérová klávesnica,virtuálna klávesnica,dotyková klávesnica,klávesnica na obrazovke,metódy vstupu",
    "X-KDE-Keywords[sl]": "programska tipkovnica,navidezna tipkovnica,tipkovnica na dotik,tipkovnica na zaslonu,metode vnosa",
    "X-KDE-Keywords[sv]": "programvarutangentbord,virtuellt tangentbord,pektangentbord,tangentbord på skärmen,inmatningsmetoder",
    "X-KDE-Keywords[ta]": "software keyboard,virtual keyboard,touch keyboard,on screen keyboard,input methods, மெய்நிகர் விசைப்பலகை, மென்பொருள் விசைப்பலகை, தொடு விசைப்பலகை, உள்ளிடு, உள்ளீட்டு, தட்டச்சு, தட்டு",
    "X-KDE-Keywords[tr]": "yazılım klavyesi,sanal klavye,dokunmatik klavye,ekran üzeri klavye,giriş yöntemleri",
    "X-KDE-Keywords[uk]": "software keyboard,virtual keyboard,touch keyboard,on screen keyboard,input methods,програмна клавіатура,віртуальна клавіатура,сенсорна клавіатура,екранна клавіатура,способи введення,методи введення",
    "X-KDE-Keywords[vi]": "software keyboard,virtual keyboard,touch keyboard,on screen keyboard,input methods,bàn phím phần mềm,bàn phím ảo,bàn phím cảm ứng,bàn phím trên màn hình,phương thức nhập",
    "X-KDE-Keywords[x-test]": "xxsoftware keyboardxx,xxvirtual keyboardxx,xxtouch keyboardxx,xxon screen keyboardxx,xxinput methodsxx",
    "X-KDE-Keywords[zh_CN]": "software keyboard,virtual keyboard,touch keyboard,on screen keyboard,input methods,软件键盘,虚拟键盘,屏幕键盘,,屏上键盘,输入方式,输入法",
    "X-KDE-OnlyShowOnQtPlatforms": [
        "wayland"
    ],
    "X-KDE-ParentApp": "kcontrol",
    "X-KDE-System-Settings-Parent-Category": "input-devices"
}
