{
    "KPackageStructure": "KWin/Decoration",
    "KPlugin": {
        "Authors": [
            {
                "Email": "mgraesslin@kde.org",
                "Name": "Martin Gräßlin",
                "Name[ar]": "مارتن جراجلين",
                "Name[bg]": "Martin Gräßlin",
                "Name[ca@valencia]": "Martin Gräßlin",
                "Name[ca]": "Martin Gräßlin",
                "Name[es]": "Martin Gräßlin",
                "Name[eu]": "Martin Gräßlin",
                "Name[fr]": "Martin Gräßlin",
                "Name[it]": "Martin Gräßlin",
                "Name[ka]": "მარტინ გრესსლინი",
                "Name[nl]": "Martin Gräßlin",
                "Name[pt]": "Martin Gräßlin",
                "Name[sl]": "Martin Gräßlin",
                "Name[ta]": "மார்ட்டின் கிராஸ்லின்",
                "Name[tr]": "Martin Gräßlin",
                "Name[uk]": "Martin Gräßlin",
                "Name[vi]": "Martin Gräßlin",
                "Name[x-test]": "xxMartin Gräßlinxx"
            }
        ],
        "Description": "The classic theme known from KDE 3",
        "Description[ar]": "السّمة الكلاسيكيّة المعروفة من كدي 3",
        "Description[bg]": "Класическата тема, позната от KDE 3",
        "Description[ca@valencia]": "El tema clàssic conegut des de KDE 3",
        "Description[ca]": "El tema clàssic conegut des del KDE 3",
        "Description[es]": "El clásico tema conocido desde KDE 3",
        "Description[eu]": "KDE 3tik ezaguna den gai klasikoa",
        "Description[fr]": "Le thème classique, connu depuis KDE3",
        "Description[it]": "Il noto tema classico di KDE 3",
        "Description[nl]": "Het klassieke thema bekend van KDE 3",
        "Description[pt]": "O tema clássico e conhecido do KDE 3",
        "Description[sl]": "Klasična tema znana iz KDE 3",
        "Description[tr]": "KDE 3 zamanından klasik tema",
        "Description[uk]": "Класична тема, відома з часів KDE 3",
        "Description[vi]": "Chủ đề cổ điển được biết đến từ KDE 3",
        "Description[x-test]": "xxThe classic theme known from KDE 3xx",
        "Id": "kwin4_decoration_qml_plastik",
        "License": "GPL",
        "Name": "Plastik",
        "Name[ar]": "بلاستك",
        "Name[bg]": "Plastik",
        "Name[ca@valencia]": "Plastik",
        "Name[ca]": "Plastik",
        "Name[es]": "Plastik",
        "Name[eu]": "Plastik",
        "Name[fr]": "Plastik",
        "Name[it]": "Plastik",
        "Name[nl]": "Plastik",
        "Name[pt]": "Plastik",
        "Name[sl]": "Plastik",
        "Name[tr]": "Plastik",
        "Name[uk]": "Пластик",
        "Name[vi]": "Plastik",
        "Name[x-test]": "xxPlastikxx",
        "Version": "1.0"
    },
    "X-KWin-Config-TranslationDomain": "kwin_clients",
    "X-Plasma-MainScript": "ui/main.qml"
}
