{
    "KPackageStructure": "KWin/Effect",
    "KPlugin": {
        "Authors": [
            {
                "Email": "davidedmundson@kde.org",
                "Name": "David Edmundson",
                "Name[ar]": "ديفيد إدموندسون",
                "Name[bg]": "David Edmundson",
                "Name[ca@valencia]": "David Edmundson",
                "Name[ca]": "David Edmundson",
                "Name[es]": "David Edmundson",
                "Name[eu]": "David Edmundson",
                "Name[fr]": "David Edmundson",
                "Name[it]": "David Edmundson",
                "Name[ka]": "დავიდ ედმუნდსონი",
                "Name[nl]": "David Edmundson",
                "Name[pt]": "David Edmundson",
                "Name[sl]": "David Edmundson",
                "Name[ta]": "டேவிட் எட்மண்டுஸன்",
                "Name[tr]": "David Edmundson",
                "Name[uk]": "David Edmundson",
                "Name[vi]": "David Edmundson",
                "Name[x-test]": "xxDavid Edmundsonxx"
            }
        ],
        "Category": "Appearance",
        "Description": "Keep the desktop background alive during logout until the end",
        "Description[ar]": "حافظ على خلفية سطح المكتب حتى نهاية عملية الخروج",
        "Description[bg]": "Показване на фона на работния плот до края на излизането от сесия",
        "Description[ca@valencia]": "Manté viu el fons de l'escriptori durant l'eixida de la sessió fins al final",
        "Description[ca]": "Manté viu el fons de l'escriptori durant la sortida de la sessió fins al final",
        "Description[es]": "Mantener vivo el fondo del escritorio hasta el final durante el cierre de sesión",
        "Description[eu]": "Eutsi mahaigaineko atzeko-planoa bizirik saio-ixten bukaera arte",
        "Description[fr]": "Conserver l'arrière-plan du bureau actif jusqu'à la fin de la déconnexion",
        "Description[it]": "Mantieni attivo lo sfondo del desktop durante la chiusura della sessione fino alla fine",
        "Description[nl]": "De achtergrond van het bureaublad tot het einde levend houden gedurende afmelden",
        "Description[pt]": "Manter activo o fundo do ecrã durante o encerramento até ao fim",
        "Description[sl]": "Ohranite ozadje namizja dejavno med odjavo vse do konca",
        "Description[ta]": "வெளியேறும்போது கடைசிவரை பணிமேடையின் பின்புல படத்தை வைத்திருக்கும்",
        "Description[tr]": "Çıkış sırasında en son aşamaya dek masaüstü arka planını göster",
        "Description[uk]": "Не вимикати тло стільниці до кінця процедури виходу із облікового запису",
        "Description[vi]": "Giữ nền bàn làm việc hiện cho đến cuối quá trình đăng xuất",
        "Description[x-test]": "xxKeep the desktop background alive during logout until the endxx",
        "EnabledByDefault": true,
        "Icon": "preferences-system-windows-effect-logout",
        "Id": "kwin4_effect_sessionquit",
        "License": "GPL",
        "Name": "Session Quit",
        "Name[ar]": "انتهاء الجلسة",
        "Name[bg]": "Изход от сесията",
        "Name[ca@valencia]": "Eixida de la sessió",
        "Name[ca]": "Sortida de la sessió",
        "Name[es]": "Salir de la sesión",
        "Name[eu]": "Saiotik irtetea",
        "Name[fr]": "Fermeture de la session",
        "Name[it]": "Chiusura sessione",
        "Name[ka]": "სესიიდან გასვლა",
        "Name[nl]": "Afsluiten van sessie",
        "Name[pt]": "Sair da Sessão",
        "Name[sl]": "Zaključek seje",
        "Name[ta]": "அமர்வு வெளியேற்றம்",
        "Name[tr]": "Oturum Çıkışı",
        "Name[uk]": "Вихід з сеансу",
        "Name[vi]": "Thoát phiên",
        "Name[x-test]": "xxSession Quitxx",
        "Version": "0.2.0"
    },
    "X-KDE-Ordering": "40",
    "X-KWin-Internal": "true",
    "X-Plasma-API": "javascript",
    "X-Plasma-MainScript": "code/main.js"
}
